Chapter 4 Gap analysis | PRIORITIZR WORKSHOP MANUAL
…
# calculate amount of each feature in each planning unit
abundance_data <- feature_abundances(p0)

# print abundance data
print(abundance_data)

## # A tibble: 32 x 3
##    feature       absolute_abundance relative_abundance
##    <chr>                      <dbl>              <dbl>
##  1 vegetation.1                16.0                  1
##  2 vegetation.2                14.3                  1
##  3 vegetation.3                10.4                  1
##  4 vegetation.4                17.8                  1
##  5 vegetation.5                13.0                  1
##  6 vegetation.6                14.3                  1
##  7 vegetation.7                20.0                  1
##  8 vegetation.8                14.0                  1
##  9 vegetation.9                18.0                  1
## 10 vegetation.10               20.0                  1
## # … with 22 more rows
…
The abundance_data object contains three columns. The feature column contains the name of each feature (derived from names(veg_data)), the absolute_abundance column contains the total amount of each feature in all the planning units, and the relative_abundance column contains the total amount of each feature in the planning units expressed as a proportion of the total amount in the underlying raster data. Since all the raster cells containing vegetation overlap with the planning units, all of the values in the relative_abundance column are equal to one (meaning 100%). Now let's add a new column with the feature abundances expressed in area units (i.e. km2).

# add new column with feature abundances in km^2
abundance_data$absolute_abundance_km2 <-
  (abundance_data$absolute_abundance * prod(res(veg_data))) %>%
  set_units(m^2) %>%
  set_units(km^2)

# print abundance data
print(abundance_data)

## # A tibble: 32 x 4
##    feature       absolute_abundance relative_abundance absolute_abundance_km2
##    <chr>                      <dbl>              <dbl>                 [km^2]
##  1 vegetation.1                16.0                  1               15.78148
##  2 vegetation.2                14.3                  1               14.11504
##  3 vegetation.3                10.4                  1               10.23844
##  4 vegetation.4                17.8                  1               17.58813
##  5 vegetation.5                13.0                  1               12.83198
##  6 vegetation.6                14.3                  1               14.10423
##  7 vegetation.7                20.0                  1               19.72680
##  8 vegetation.8                14.0                  1               13.85014
##  9 vegetation.9                18.0                  1               17.75412
## 10 vegetation.10               20.0                  1               19.74076
## # … with 22 more rows
…
4.3 Feature representation

After calculating the total amount of each feature in the planning units (i.e. the features' abundances), we will now calculate the amount of each feature in the planning units that are covered by protected areas (i.e. feature representation by protected areas). We can complete this task using the feature_representation function. This function requires (i) a conservation problem object with the planning unit and biodiversity data and also (ii) an object representing a solution to the problem (i.e an object in the same format as the planning unit data with values indicating if the planning units are selected or not).

# create column in planning unit data with binary values (zeros and ones)
# indicating if a planning unit is covered by protected areas or not
pu_data$pa_status <- as.numeric(pu_data$locked_in)

# calculate feature representation by protected areas
repr_data <- feature_representation(p0, pu_data[, "pa_status"])

# print feature representation data
print(repr_data)

## # A tibble: 32 x 3
##    feature       absolute_held relative_held
##    <chr>                 <dbl>         <dbl>
##  1 vegetation.1          0            0     
##  2 vegetation.2          0            0     
##  3 vegetation.3          0            0     
##  4 vegetation.4          0            0     
##  5 vegetation.5          0            0     
##  6 vegetation.6          0            0     
##  7 vegetation.7          0            0     
##  8 vegetation.8          0            0     
##  9 vegetation.9          0.846        0.0470
## 10 vegetation.10         0            0     
## # … with 22 more rows

Similar to the abundance data before, the repr_data object contains three columns. The feature column contains the name of each feature, the absolute_held column shows the total amount of each feature held in the solution (i.e. the planning units covered by protected areas), and the relative_held column shows the proportion of each feature held in the solution (i.e. the proportion of each feature's spatial distribution held in protected areas). Since the absolute_held values correspond to the number of grid cells in the veg_data object with overlap with protected areas, let's convert them to area units (i.e. km2) so we can report them.

# add new column with the areas represented in km^2
repr_data$absolute_held_km2 <-
  (repr_data$absolute_held * prod(res(veg_data))) %>%
  set_units(m^2) %>%
  set_units(km^2)

# print representation data
print(repr_data)

## # A tibble: 32 x 4
##    feature       absolute_held relative_held absolute_held_km2
##    <chr>                 <dbl>         <dbl>            [km^2]
##  1 vegetation.1          0            0              0.0000000
##  2 vegetation.2          0            0              0.0000000
##  3 vegetation.3          0            0              0.0000000
##  4 vegetation.4          0            0              0.0000000
##  5 vegetation.5          0            0              0.0000000
##  6 vegetation.6          0            0              0.0000000
##  7 vegetation.7          0            0              0.0000000
##  8 vegetation.8          0            0              0.0000000
##  9 vegetation.9          0.846        0.0470         0.8341885
## 10 vegetation.10         0            0              0.0000000
## # … with 22 more rows
…
